#102716 - Alt. Smithing God, Hephaestus Dragon
monster size: 5
new AI: True
start/max counter: 255
counter increment: 0

#1: ESPreemptive(49:318) -> ESPreemptive
Enable preempt if level 1

#2: SkillSet:
	Condition: One-time use (ai:100 rnd:0) (cost: 128)
	[0] ESStatusShield(20:4043) -> Sturdy Flame Scales
	Voids status ailments for 999 turns
	[1] ESSkillDelay(89:4044) -> Face-to-Face Fight
	Delay active skills by 15 turns

#3: ESRecoverEnemy86(86:4057) -> Fortitude
Condition: When < 1% HP (ai:100 rnd:0)
Enemy recover 50% HP

#4: ESAttackMultihit(15:4046) -> Hellfire Greataxe
Condition: One-time use (ai:100 rnd:0) (cost: 64)
Deal 101% damage

#5: ESAttackMultihit(15:4047) -> Double Hammer Hit
Condition: One-time use (ai:100 rnd:0) (cost: 32)
Deal 204% damage (2 hits, 102% each)

#6: ESAttackMultihit(15:4048) -> Three Blazing Blades
Condition: One-time use (ai:100 rnd:0) (cost: 16)
Deal 309% damage (3 hits, 103% each)

#7: ESAttackMultihit(15:4049) -> Crimson Lion
Condition: One-time use (ai:100 rnd:0) (cost: 8)
Deal 416% damage (4 hits, 104% each)

#8: ESAttackMultihit(15:4050) -> Time-Tearing Slash
Condition: One-time use (ai:100 rnd:0) (cost: 4)
Deal 525% damage (5 hits, 105% each)

#9: ESAttackMultihit(15:4051) -> Resounding Destructive Strength
Condition: One-time use (ai:100 rnd:0) (cost: 2)
Deal 636% damage (6 hits, 106% each)

#10: ESAttackMultihit(15:4052) -> Divine Might
Deal 3,619% damage (7 hits, 517% each)

#11: ESResolve(73:4056) -> Hephaestus Resolve
Survive attacks with 1 HP when HP > 50%

#12: ESAttributeResist(72:8802) -> HepaDra Fire Water Halved
Reduce damage from Fire and Water attrs by 50%