#1846 - Phantom Dragon King, Zeroag∞
monster size: 5
new AI: True
start/max counter: 1
counter increment: 0

#1: ESPreemptive(49:355) -> ESPreemptive
Enable preempt if level 5

#2: ESDeathCry(69:2330) -> Zero Transformation
Condition: On death (ai:0 rnd:0)
Show message: Not bad! No holding back now!|Grr...GRROAR!!

#3: ESBranchLevel(35:25) -> ESBranchLevel
Branch on level >= 5, target rnd 5

#4: ESEndPath(36:26) -> ESEndPath
end_turn

#5: ESBranchFlag(43:10) -> ESBranchFlag
Branch on flag & 1, target rnd 9

#6: ESFlagOperation(22:12) -> ESFlagOperation
flag SET 0b1

#7: SkillSet:
	[0] ESSkillDelay(89:2319) -> Let's battle!
	Delay active skills by 2 turns
	[1] ESAbsorbCombo(67:2320) -> 6 combos or you die!
	Absorb damage when combos <= 5 for 1 turn

#8: ESEndPath(36:26) -> ESEndPath
end_turn

#9: ESBranchHP(28:18) -> ESBranchHP
Branch on hp < 50, target rnd 15

#10: ESBranchHP(29:19) -> ESBranchHP
Branch on hp > 100, target rnd 18

#11: ESBranchFlag(43:10) -> ESBranchFlag
Branch on flag & 2, target rnd 14

#12: ESFlagOperation(22:12) -> ESFlagOperation
flag SET 0b11

#13: SkillSet:
	[0] ESAbsorbCombo(67:2323) -> Hm, try again.
	Absorb damage when combos <= 5 for 1 turn
	[1] ESDebuffMovetime(39:2324) -> It'll be harder this time.
	Movetime -1s for 1 turn

#14: ESBlind62(62:2326) -> Not enough damage!
Blind all orbs on the board, Deal 600% damage

#15: ESAttackUPRemainingEnemies(17:2327) -> Here I go!
Condition: When < 50% HP , one-time use, when <= 1 enemies remain (ai:100 rnd:0) (cost: 1)
Increase damage to 200% for the next 999 turns

#16: ESAttackMultihit(15:2328) -> Chaotic Ball
Condition: 50% chance when < 50% HP (ai:50 rnd:0)
Deal 105% damage (3 hits, 35% each)

#17: ESBindAttack(63:2329) -> Steel Tail
Condition: When < 50% HP (ai:100 rnd:0)
Bind 1 random card for 2 turns, Deal 60% damage

#18: ESAttackMultihit(15:2322) -> Not good enough.
Deal 600% damage (3 hits, 200% each)