#9030 - Ultraman Leo
monster size: 5
new AI: True
start/max counter: 1
counter increment: 0

#1: ESPreemptive(49:318) -> ESPreemptive
Enable preempt if level 1

#2: ESDebuffATK(130:38525) -> Energy Beam Ball
Condition: One-time use (ai:100 rnd:0) (cost: 1)
ATK -50% for 3 turns, Deal 100% damage

#3: ESAttackMultihit(15:38526) -> Leo Kick
Condition: 25% chance (ai:0 rnd:25)
Deal 102% damage (3 hits, 34% each)

#4: ESDebuffRCV(105:38527) -> Leo Spark
Condition: 25% chance (ai:0 rnd:25)
RCV 50% for 1 turn, Deal 100% damage

#5: ESOrbChangeAttackBits(108:38528) -> Leo Chop
Condition: 25% chance (ai:0 rnd:25)
Change all Heal orbs to Fire orbs, Deal 100% damage

#6: ESRandomSpawn(92:38529) -> Hand Slicer
Condition: 25% chance (ai:0 rnd:25)
Spawn 5 random Jammer orbs, Deal 100% damage

#7: ESEndPath(36:26) -> ESEndPath
end_turn

#8: ESAttributeResist(72:38530) -> Fire Halved
Reduce damage from Fire attrs by 50%