#1003151 - Genbu Princess of Leisure, Meimei
monster size: 5
new AI: True
start/max counter: 7
counter increment: 0
monster_id: 1003151
approved: False

level: 1
 type: PREEMPT
 | (12644:92) What a good feeling!♪
 | Spawn 15 random Heal orbs
 group:
 | group:
 | condition: always turn 1
   | (12645:89) Let's chill out!♪
   | Delay active skills by 6 turns
 | group:
   | condition: 50% chance
   | (12646:94) I don't want to move!
   | Lock 10 random orbs, Deal 95% damage
   | condition: 50% chance
   | (12647:15) Rolling, rolling!
   | Deal 110% damage
 | group:
 | condition: always turn 2, hp <= 49
   | (12648:68) Oh! Sun shower!
   | Poison skyfall +20% for 5 turns
 | group:
 | condition: hp <= 20
   | (12649:15) Northern Seven-Star Formation
   | Deal 245% damage (7 hits, 35% each)