#103177 - Yumitsukami-no-miko, Kagenue
monster size: 5
new AI: True
start/max counter: 3
counter increment: 0
monster_id: 103177
approved: False

level: 1
 type: PREEMPT
 | (12905:83) Tiger Snake Roar + Life Altering Evil
 | Bind awoken skills for 5 turns + Change all orbs to Light, Dark, and Jammer, Deal 130% damage
 group:
 | group:
   | condition: 33% chance
   | (12908:1) Strong Dash
   | Bind 1 random card for 2 turns, Deal 95% damage
   | condition: 33% chance
   | (12909:89) Snake Fang Assault
   | Delay active skills by 1~2 turns, Deal 100% damage
   | condition: 34% chance
   | (12910:15) Moonlight Claws
   | Deal 112% damage (4 hits, 28% each)
 | group:
 | condition: turn 1 while HP > 14, hp <= 49
   | (12911:83) Ground Drilling + Rolling Up
   | Seal the 5th row for 5 turns + Reduce damage from all sources by 50% for 5 turns
 | group:
 | condition: hp <= 14
   | group:
   | condition: turn 1
     | (12914:85) Evil Double Menace
     | Change all orbs to Jammer, Deal 150% damage
   | group:
     | (12915:15) Claw & Fang Double Strike
     | Deal 600% damage (6 hits, 100% each)