#201340 - Rich Gold Dragon
monster size: 5
new AI: True
start/max counter: 1
counter increment: 0
monster_id: 201340
approved: False

level: 1
 type: PREEMPT
 | (21426:66) Hope you have a great 2023!
 | Do nothing
 group:
 | condition: 50% chance
 | (21427:66) Make a wish at the shrine!
 | Do nothing
 | condition: 50% chance
 | (21428:66) Happy Lunar New Year!
 | Do nothing