#203380 - Sprite of the Sanctuary, Pixie
monster size: 4
new AI: True
start/max counter: 1
counter increment: 1
monster_id: 203380
approved: False

level: 4
 type: PREEMPT
 | (6183:39) Saintly Wink
 | Movetime -1s for 2 turns
 group:
 | group:
 | condition: execute repeatedly, turn 1 of 2
   | (6189:89) Sleep Powder
   | Delay active skills by 1 turn
 | group:
 | condition: execute repeatedly, turn 2 of 2
   | (6184:15) Jingle Bells
   | Deal 160% damage (2 hits, 80% each)