#207568 - Fishing God of Thunder, Thor
monster size: 5
new AI: True
start/max counter: 1
counter increment: 1
monster_id: 207568
approved: False

level: 1
 type: PASSIVE
 | (25896:72) Dark halved
 | Reduce damage from Dark attrs by 50%
 | (25897:129) Super Resolve
 | Damage which would reduce HP from above 50% to below 50% is nullified
 type: PREEMPT
 | (25871:83) Here I come! + You can't stop me! + Thunder God's Might + Squirming Jellyfish
 | Voids status ailments for 999 turns + Absorb damage when combos <= 7 for 999 turns + Locked Water and Light skyfall +100% for 99 turns + Spawn 9 random Water and Light orbs
 group:
 | group:
   | group:
   | condition: execute repeatedly, turn 1 of 2
     | (25894:83) Shoal of Ocean Creatures + Raaargh!
     | Blind random 15 orbs for 1 turn + Deal 99% damage (3 hits, 33% each), Deal 99% damage (3 hits, 33% each)
   | group:
   | condition: execute repeatedly, turn 2 of 2
     | (25891:83) Summer Spray + Raaargh!
     | Bind 2 random subs for 3 turns + Deal 99% damage (3 hits, 33% each), Deal 99% damage (3 hits, 33% each)
 | group:
 | condition: hp <= 49
   | group:
   | condition: turn 1 while HP > 19
     | (25881:83) Is that all you've got?! + I'm not done yet! + You better get fired up!
     | Reduce damage from all sources by 50% for 99 turns + Leader changes to random sub for 3 turns + Haste random sub's skills by 20 turns
   | group:
   | condition: execute repeatedly, turn 1 of 2
     | (25885:83) Watch closely! + This is how you do it!
     | Change the 1st column to Light orbs and the 5th column to Light orbs + Deal 120% damage (3 hits, 40% each), Deal 120% damage (3 hits, 40% each)
   | group:
   | condition: execute repeatedly, turn 2 of 2
     | (25888:83) Pick out your target! + Take this!
     | Fix orb movement starting point to random position on the board + RCV 25% for 1 turn, Deal 100% damage
 | group:
 | condition: hp <= 19
   | group:
   | condition: turn 1
     | (25877:83) Now... + I'll make you leave! + Rune Enhance
     | Bind awoken skills for 1 turn + Bind player leader for 1 turn + Increase damage to 250% for the next 999 turns
   | group:
     | (25876:15) Let's see how you like this!!
     | Deal 539% damage (7 hits, 77% each)