#208360 - Valentine Gleaming Star Goddess, Astraea
monster size: 5
new AI: True
start/max counter: 1
counter increment: 0
monster_id: 208360
approved: False

level: 1
 type: PASSIVE
 | (33840:72) Light Halved
 | Reduce damage from Light attrs by 50%
 type: PREEMPT
 | (33810:83) Hey, don't look yet! + I'll give you some if there are any left over... + Don't get your hopes up, though.
 | Voids status ailments for 999 turns + Reduce damage from all sources by 50% for 2 turns + Locked random skyfall +25% for 10 turns
 group:
 | group:
 | condition: always turn 2
   | (33814:83) Gleaming Star Goddess' Protection + Gleaming Star Goddess' Feelings
   | Reduce damage from all sources by 25% for 99 turns + Unable to match Light and Dark orbs for 3 turns
 | group:
   | group:
   | condition: turn 1 while HP > 49
     | condition: 33% chance
     | (33830:83) Shine Haze + No peeking!!
     | Absorb Light damage for 1 turn + Change all Heal orbs to Light orbs, Deal 100% damage
     | condition: 33% chance
     | (33833:83) Shine Haze + No peeking!!
     | Absorb Light damage for 1 turn + Change all Dark orbs to Light orbs, Deal 100% damage
     | condition: 34% chance
     | (33836:83) Shine Haze + Sweet Stasis
     | Absorb Dark damage for 1 turn + Deal 105% damage (3 hits, 35% each), Deal 105% damage (3 hits, 35% each)
   | group:
     | condition: 33% chance
     | (33830:83) Shine Haze + No peeking!!
     | Absorb Light damage for 1 turn + Change all Heal orbs to Light orbs, Deal 100% damage
     | condition: 33% chance
     | (33833:83) Shine Haze + No peeking!!
     | Absorb Light damage for 1 turn + Change all Dark orbs to Light orbs, Deal 100% damage
     | condition: 34% chance
     | (33836:83) Shine Haze + Sweet Stasis
     | Absorb Dark damage for 1 turn + Deal 105% damage (3 hits, 35% each), Deal 105% damage (3 hits, 35% each)
 | group:
 | condition: hp <= 49
   | group:
   | condition: turn 1 while HP > 14
     | (33821:83) Sweet Scent + Here! Take these!
     | ATK -50% for 5 turns + Lock 15 random orbs, Deal 100% damage
   | group:
     | condition: 50% chance
     | (33824:83) Bewitching Chocolate + Don't think I mean anything by this!
     | Seal the 1st row for 1 turn + Change the 2nd and 5th columns to Dark orbs, Deal 101% damage
     | (33827:83) Enticing Chocolate + Don't think I mean anything by this!
     | Delay active skills by 2 turns + Change the 2nd and 4th rows to Dark orbs, Deal 101% damage
 | group:
 | condition: hp <= 14
   | group:
   | condition: turn 1
     | (33817:83) Gleaming Star Goddess' Gaze + Burnt Chocolate
     | Bind awoken skills for 1 turn + Spawn 7 random Jammer orbs
   | group:
     | (33820:15) Super Sweet Stasis
     | Deal 350% damage (7 hits, 50% each)