#209034 - Neronga (Shin Ultraman)
monster size: 5
new AI: True
start/max counter: 1
counter increment: 0
monster_id: 209034
approved: False

level: 1
 type: PREEMPT
 | (38567:107) Invisibility
 | Unable to match Light orbs for 2 turns
 group:
 | condition: 50% chance
 | (38568:15) Crush
 | Deal 102% damage (3 hits, 34% each)
 | (38569:92) Electric Attack
 | Spawn 3 random Light orbs