#256977 - Legendary General, Orlando
monster size: 5
new AI: True
start/max counter: 3
counter increment: 0
monster_id: 256977
approved: False

level: 4
 type: PREEMPT
 | (22540:83) I am Orlando, one of Charlemagne's knights! + Let us begin the fight!
 | Reduce damage from all sources by 50% for 4 turns + Specific orbs change every 1.0s for 4 turns
 group:
 | group:
   | condition: 50% chance
   | (22544:15) Haaa!
   | Deal 99% damage (3 hits, 33% each)
   | condition: 50% chance
   | (22545:92) You think you can defeat me?
   | Spawn 6 random Dark orbs, Deal 80% damage
 | group:
 | condition: turn 1 while HP > 19, hp <= 49
   | (22546:75) This is nothing compared to a Basque assault!
   | Leader changes to random sub for 3 turns
 | group:
 | condition: hp <= 19
   | group:
   | condition: turn 1
     | (22543:17) I shall protect the Frankish Kingdom with my life!
     | Increase damage to 150% for the next 5 turns
   | group:
     | condition: 50% chance
     | (22548:85) Holy Sword Durendal
     | Change all orbs to Fire, Water, Wood, Light, Dark, and Heal, Deal 120% damage
     | condition: 50% chance
     | (22547:15) I must be dreaming...
     | Deal 100% damage