#2743 - Reincarnated Chaos Dragon Knight, Voice
monster size: 5
new AI: True
start/max counter: 3
counter increment: 1
monster_id: 2743
approved: False

level: 1
 type: PREEMPT
 | (4835:83) Infernal Dragon Knight's Soul + Darkness Scythe
 | Absorb Dark damage for 4 turns + Change the 5th column to Dark orbs, Deal 50% damage
 group:
 | group:
 | condition: when hp is full
   | group:
   | condition: execute repeatedly, turn 1-3 of 4
     | (4836:15) Soul Split
     | Deal 200% damage
   | group:
   | condition: execute repeatedly, turn 4 of 4
     | (4839:2) Abyss Cage
     | Bind Dark cards for 5~10 turns
     | (4836:15) Soul Split
     | Deal 200% damage
 | group:
 | condition: hp <= 99
   | group:
   | condition: execute repeatedly, turn 1-3 of 4
     | (4837:48) Erosion
     | Change a random attribute to Dark orbs, Deal 80% damage
   | group:
   | condition: execute repeatedly, turn 4 of 4
     | (4839:2) Abyss Cage
     | Bind Dark cards for 5~10 turns
     | (4837:48) Erosion
     | Change a random attribute to Dark orbs, Deal 80% damage
 | group:
 | condition: hp <= 9
   | (4838:15) Chaos Prominence
   | Deal 800% damage (8 hits, 100% each)