#303288 - Frostmare
monster size: 2
new AI: True
start/max counter: 2
counter increment: 1
monster_id: 303288
approved: False

level: 4
 group:
 | group:
 | condition: execute repeatedly, turn 1 of 3, hp <= 100
   | (5920:65) Just chill for a while...
   | Bind 1 random sub for 2 turns
 | group:
 | condition: hp <= 19
   | (5921:15) Icicle Rain
   | Deal 200% damage (4 hits, 50% each)