#303934 - Thorn Dragon Caller, Weld
monster size: 5
new AI: True
start/max counter: 1
counter increment: 0
monster_id: 303934
approved: False

level: 1
 type: PASSIVE
 | (37039:73) Resolve
 | Survive attacks with 1 HP when HP > 50%
 | (42515:118) ＿Balanced Type halved
 | Reduce damage from Balanced types by 50%
 type: PREEMPT
 | (37193:83) Thorn Fang's Draco Summoning Shield + Hydro Pressure Fang Rain + Hydro-Snake
 | Voids status ailments for 999 turns + Fire and Water skyfall +20% for 3 turns + Change all orbs to Fire, Water, and Heal, Deal 100% damage
 group:
 | group:
   | group:
   | condition: turns 1-6 while HP > 49
     | condition: 33% chance
     | (37205:83) Snake Change + Thorn Whip
     | Change own attribute to random one of Fire, Water, Wood, Light, or Dark + Change the 1st column to Fire orbs and the 6th column to Water orbs, Deal 100% damage
     | condition: 33% chance
     | (37208:83) Thorned Shark Skin + Thorn Whip
     | Absorb Water damage for 1 turn + Lock all Water orbs, Deal 100% damage
     | condition: 34% chance
     | (37202:83) Hydro-Whip + Thorn Fang
     | Spawn 4 random Fire and Water orbs + Lock 10 random orbs, Deal 100% damage
   | group:
     | (37040:83) Hellfire Wave + Hellfire Blaze
     | Bind awoken skills for 1 turn + Deal 5,000% damage (5 hits, 1,000% each), Deal 5,000% damage (5 hits, 1,000% each)
 | group:
 | condition: turn 1 while HP > 2, hp <= 49
   | (37198:83) Thorn Fang's Hydro Pressure + Snake Splash + Thorn Fang
   | Bind active skills for 3 turns + For 3 turns, 50% ATK for 2 random subs + Lock all orbs, Deal 100% damage
 | group:
 | condition: turns 1-6, hp <= 2
   | (37197:85) Tidal-Snake
   | Change all orbs to Fire, Water, and Heal, Deal 1,000% damage