#304355 - True Spirit Numen of Light, Keela
monster size: 5
new AI: True
start/max counter: 1
counter increment: 0
monster_id: 304355
approved: False

level: 1
 type: PREEMPT
 | (23220:137) Glittering Spirit Garb
 | Void damage >= 2,000,000,000 for 5 turns
 group:
 | (23223:15) Eternal Chaos
 | Deal 240% damage (6 hits, 40% each)