#3291 - Bloodmare
monster size: 2
new AI: True
start/max counter: 2
counter increment: 1
monster_id: 3291
approved: False

level: 4
 group:
 | group:
 | condition: execute repeatedly, turn 1 of 3, hp <= 100
   | (5926:5) I like dark places!
   | Blind all orbs on the board
 | group:
 | condition: hp <= 19
   | (5927:15) Ouch, that hurt! You're gonna pay★
   | Deal 200% damage (2 hits, 100% each)