#3655 - Tigrex
monster size: 5
new AI: True
start/max counter: 1
counter increment: 0
monster_id: 3655
approved: False

level: 1
 type: PASSIVE
 | (7303:106) Enemy's next turn changed
 | Enemy turn counter change to 1 when HP <= 70%
 type: PREEMPT
 | (7295:83) Threaten + Roar
 | Delay active skills by 3~5 turns + Bind 2 random cards for 2 turns, Deal 150% damage
 group:
 | group:
   | condition: 25% chance
   | (7296:92) Dash Attack
   | Spawn 2 random Fire, Water, Wood, Light, Dark, Heal, Jammer, Poison, and Mortal Poison orbs, Deal 200% damage
   | condition: 25% chance
   | (7297:67) Frontal Spin
   | Absorb damage when combos <= 6 for 1 turn, Deal 200% damage
   | condition: 25% chance
   | (7298:77) Boulder Throw
   | Change the 1st, 3rd, and 5th columns to Jammer orbs, Deal 200% damage
   | condition: 25% chance
   | (7299:62) Jump Strike
   | Blind all orbs on the board, Deal 200% damage
 | group:
 | condition: turn 1, hp <= 69
   | (7302:83) Enraged + Roar
   | Increase damage to 130% for the next 10 turns + Bind 2 random cards for 2 turns, Deal 150% damage