#401075 - Alt. Strawberry Dragon
monster size: 3
new AI: True
start/max counter: 3
counter increment: 0
monster_id: 401075
approved: False

level: 1
 type: PASSIVE
 | (34043:73) Resolve
 | Survive attacks with 1 HP when HP > 50%
 type: PREEMPT
 | (37000:20) Red Fruit
 | Voids status ailments for 7 turns
 group:
 | group:
 | condition: turn 1
   | (37003:46) Fruit Clash
   | Change own attribute to random one of Fire, Water, Wood, Light, or Dark, Deal 100% damage
 | group:
 | condition: turn 3
   | (37003:46) Fruit Clash
   | Change own attribute to random one of Fire, Water, Wood, Light, or Dark, Deal 100% damage
 | group:
 | condition: turns 5-6
   | (37003:46) Fruit Clash
   | Change own attribute to random one of Fire, Water, Wood, Light, or Dark, Deal 100% damage
 | group:
   | (37042:15) Hellfire Blaze
   | Deal 5,000% damage (5 hits, 1,000% each)
 type: REMAINING
 condition: when 1 enemies remain, hp <= 100
 | group:
 | condition: turn 1
   | (37044:19) Hellfire Release
   | Increase damage to 1,000% for the next 999 turns
 | group:
 | condition: turns 2-6
   | (37003:46) Fruit Clash
   | Change own attribute to random one of Fire, Water, Wood, Light, or Dark, Deal 100% damage