#4202 - Black Devilcat's Disciple, Meowlinu
monster size: 3
new AI: True
start/max counter: 1
counter increment: 1
monster_id: 4202
approved: False

level: 4
 group:
 | group:
 | condition: execute repeatedly, turn 1 of 2, hp <= 100
   | (9009:48) Me...meow...
   | Change a random attribute to Dark orbs, Deal 80% damage
 | group:
 | condition: turn 1, hp <= 49
   | (9010:109) Pawlease forgive me!
   | Random 2 orbs change every 1.0s for 2 turns