#501094 - Cyclone Devil Dragon
monster size: 5
new AI: True
start/max counter: 1
counter increment: 0
monster_id: 501094
approved: False

level: 1
 type: PREEMPT
 | (36756:83) Grrrrr... + Grrraaaaaoooh!
 | Absorb Wood damage for 3 turns + ATK -50% for 2 turns
 group:
 | group:
   | condition: 50% chance
   | (36762:92) Graar!
   | Spawn 3 random Light and Dark orbs, Deal 100% damage
   | condition: 50% chance
   | (36763:85) Gyaah!
   | Change all orbs to Fire, Water, Wood, Light, Dark, and Heal, Deal 100% damage
 | group:
 | condition: turn 1, hp <= 49
   | (36759:83) Graah! + Gyaaaaaargh!!
   | Voids status ailments for 3 turns + Void damage >= 200,000 for 3 turns, Deal 100% damage