#503638 - Cthulhu, the Nightmare Incarnate
monster size: 5
new AI: True
start/max counter: 1
counter increment: 0
monster_id: 503638
approved: False

level: 1
 type: PREEMPT
 | (36685:83) Grroohh... + Gueeehhh!
 | No skyfall for 3 turns + Absorb Water damage for 2 turns
 group:
 | group:
   | (36803:94) Gueeh!
   | Lock 5 random orbs, Deal 100% damage
 | group:
 | condition: turn 1, hp <= 49
   | (36802:67) Gurrroooh!
   | Absorb damage when combos <= 4 for 2 turns, Deal 100% damage