#608408 - Alt. Super Emerald Dragon
monster size: 3
new AI: True
start/max counter: 3
counter increment: 0
monster_id: 608408
approved: False

level: 1
 type: PASSIVE
 | (34043:73) Resolve
 | Survive attacks with 1 HP when HP > 50%
 type: PREEMPT
 | (40352:1) Emerald Aura
 | Bind 6 random cards for 5 turns
 group:
 | group:
 | condition: turn 1
   | (40355:46) Jewel Claw
   | Change own attribute to random one of Fire, Water, Wood, Light, or Dark, Deal 100% damage
 | group:
 | condition: turn 3
   | (40355:46) Jewel Claw
   | Change own attribute to random one of Fire, Water, Wood, Light, or Dark, Deal 100% damage
 | group:
 | condition: turn 5
   | (40355:46) Jewel Claw
   | Change own attribute to random one of Fire, Water, Wood, Light, or Dark, Deal 100% damage
 | group:
   | (34046:15) Cosmic Destruction
   | Deal 5,000% damage (5 hits, 1,000% each)
 type: REMAINING
 condition: when 1 enemies remain, hp <= 100
 | group:
 | condition: turn 1
   | (34037:19) Cosmic Liberation
   | Increase damage to 1,000% for the next 999 turns
 | group:
 | condition: turns 2-5
   | (40355:46) Jewel Claw
   | Change own attribute to random one of Fire, Water, Wood, Light, or Dark, Deal 100% damage