#706755 - Alt. Super Sapphire Carbuncle
monster size: 2
new AI: True
start/max counter: 3
counter increment: 0
monster_id: 706755
approved: False

level: 1
 type: PASSIVE
 | (34043:73) Resolve
 | Survive attacks with 1 HP when HP > 50%
 type: PREEMPT
 | (40369:53) Sapphire Jewelry
 | Absorb Water damage for 6 turns
 group:
 | group:
 | condition: turn 2
   | (40373:46) Carbuncle Change
   | Change own attribute to random one of Fire, Water, Wood, Light, or Dark, Deal 100% damage
 | group:
 | condition: turn 4
   | (40373:46) Carbuncle Change
   | Change own attribute to random one of Fire, Water, Wood, Light, or Dark, Deal 100% damage
 | group:
   | (34046:15) Cosmic Destruction
   | Deal 5,000% damage (5 hits, 1,000% each)
 type: REMAINING
 condition: when 1 enemies remain, hp <= 100
 | group:
 | condition: turn 1
   | (34037:19) Cosmic Liberation
   | Increase damage to 1,000% for the next 999 turns
 | group:
 | condition: turns 2-5
   | (40373:46) Carbuncle Change
   | Change own attribute to random one of Fire, Water, Wood, Light, or Dark, Deal 100% damage