#7682 - Mega Awoken Yog-Sothoth, the Everlasting's Gem
monster size: 4
new AI: True
start/max counter: 3
counter increment: 0
monster_id: 7682
approved: False

level: 1
 type: PASSIVE
 | (37518:129) Super Resolve
 | Damage which would reduce HP from above 50% to below 50% is nullified
 type: PREEMPT
 | (37511:92) Bright Shining Gem
 | Spawn 5 random Light and Jammer orbs
 group:
 | group:
   | (37513:46) Aurora Flash
   | Change own attribute to random one of Fire, Water, Wood, Light, or Dark, Deal 100% damage
 | group:
 | condition: turn 1, hp <= 49
   | condition: 33% chance
   | (37516:137) Mystic Light Source
   | Void damage >= 2,000,000,000 for 6 turns, Deal 170% damage
   | condition: 33% chance
   | (37517:74) Mystic Light Source
   | Reduce damage from all sources by 50% for 6 turns, Deal 170% damage
   | condition: 34% chance
   | (37515:143) Mystic Light Source
   | For 6 turns, 1% ATK for 1 random sub, Deal 170% damage
 type: REMAINING
 condition: when 1 enemies remain, always turn 1
 | (37514:17) Gem's Miracle
 | Increase damage to 1,000% for the next 999 turns