#806582 - Diamond REMDra (10 Pulls)
monster size: 5
new AI: True
start/max counter: 1
counter increment: 0
monster_id: 806582
approved: False

level: 1
 type: PREEMPT
 | (40202:97) Ka-Chak!
 | Blind random 3 orbs for 3 turns
 group:
 | (40203:97) Ka-Chak-Chak!
 | Blind random 1 orbs for 10 turns, Deal 100% damage