#8966 - Teng
monster size: 5
new AI: True
start/max counter: 1
counter increment: 0
monster_id: 8966
approved: False

level: 1
 type: PASSIVE
 | (39198:73) ＿Teng Resolve
 | Survive attacks with 1 HP when HP > 50%
 type: PREEMPT
 | (39199:67) Move out!
 | Absorb damage when combos <= 6 for 5 turns
 group:
 | group:
   | group:
   | condition: execute repeatedly, turn 1 of 4
     | (39200:110) Schwing schwing schwing schwing
     | Specific orbs change every 1.0s for 1 turn, Deal 85% damage
   | group:
   | condition: execute repeatedly, turn 2 of 4
     | (39201:79) Deploy into line.
     | Change the 5th row to Water orbs, Deal 100% damage
   | group:
   | condition: execute repeatedly, turn 3 of 4
     | (39202:128) We're going to dispose of the enemy archers.
     | For 3 turns, 15% chance for skyfall orbs to be blinded for turn, Deal 90% damage
   | group:
   | condition: execute repeatedly, turn 4 of 4
     | (39203:50) Schwing
     | Player -99% HP
 | group:
 | condition: turn 1, hp <= 49
   | (39204:83) I haven't shed this much blood... + ...in quite a while.
   | Heal skyfall +15% for 2 turns + Unable to match Heal orbs for 2 turns, Deal 115% damage